Project Detail - Frederico Karklin
…
# Contar ocorrências por UF usando dplyr
frequencia_uf <- dataset %>%
  group_by(uf) %>%
  summarise(total = n()) %>%
  arrange(desc(total))

print(frequencia_uf)

# Plot gráfico de barras com ggplot2
ggplot(frequencia_uf, aes(x = reorder(uf, -total), y = total)) +
  geom_bar(stat = "identity") +
  theme_minimal() +
  labs(title = "Acidentes por UF", x = "UF", y = "Acidentes")

# A tibble: 27 × 2
   uf    total
   <chr> <int>
 1 MG     7597
 2 SC     6916
 3 PR     6213
 4 RJ     5236
 5 RS     4320
 6 SP     4035
 7 BA     3443
 8 GO     2775
 9 PE     2682
10 MT     2131
# ℹ 17 more rows
…
